…
``` r
constitucion %>% group_by(opcion) %>% summarize(total_votos = sum(votos, na.rm = TRUE))
#> `summarise()` ungrouping output (override with `.groups` argument)
#> # A tibble: 2 x 2
#>   opcion  total_votos
#>   <chr>         <dbl>
#> 1 Apruebo     5861090
#> 2 Rechazo     1628609
```

``` r
constitucion %>% group_by(nombre_comuna, opcion) %>% summarize(total_votos = sum(votos, na.rm = TRUE))
#> `summarise()` regrouping output by 'nombre_comuna' (override with `.groups` argument)
#> # A tibble: 692 x 3
#> # Groups:   nombre_comuna [346]
#>    nombre_comuna   opcion  total_votos
#>    <chr>           <chr>         <dbl>
#>  1 ALGARROBO       Apruebo        4932
#>  2 ALGARROBO       Rechazo        2118
#>  3 ALHUE           Apruebo        2323
#>  4 ALHUE           Rechazo         309
#>  5 ALTO BIOBIO     Apruebo        1269
#>  6 ALTO BIOBIO     Rechazo         424
#>  7 ALTO DEL CARMEN Apruebo        1559
#>  8 ALTO DEL CARMEN Rechazo         241
#>  9 ALTO HOSPICIO   Apruebo       21373
#> 10 ALTO HOSPICIO   Rechazo        4608
#> # ... with 682 more rows
```
…
``` r
tipo_de_organo %>% group_by(opcion) %>% summarize(total_votos = sum(votos, na.rm = TRUE))
#> `summarise()` ungrouping output (override with `.groups` argument)
#> # A tibble: 2 x 2
#>   opcion                          total_votos
#>   <chr>                                 <dbl>
#> 1 Convención Constitucional           5621836
#> 2 Convención Mixta Constitucional     1496492
```

``` r
tipo_de_organo %>% group_by(nombre_comuna, opcion) %>% summarize(total_votos = sum(votos, na.rm = TRUE))
#> `summarise()` regrouping output by 'nombre_comuna' (override with `.groups` argument)
#> # A tibble: 692 x 3
#> # Groups:   nombre_comuna [346]
#>    nombre_comuna   opcion                          total_votos
#>    <chr>           <chr>                                 <dbl>
#>  1 ALGARROBO       Convención Constitucional              4754
#>  2 ALGARROBO       Convención Mixta Constitucional        1856
#>  3 ALHUE           Convención Constitucional              2158
#>  4 ALHUE           Convención Mixta Constitucional         406
#>  5 ALTO BIOBIO     Convención Constitucional              1131
#>  6 ALTO BIOBIO     Convención Mixta Constitucional         424
#>  7 ALTO DEL CARMEN Convención Constitucional              1465
#>  8 ALTO DEL CARMEN Convención Mixta Constitucional         278
#>  9 ALTO HOSPICIO   Convención Constitucional             20247
#> 10 ALTO HOSPICIO   Convención Mixta Constitucional        4663
#> # ... with 682 more rows
```
…
